name="Dynamic Culture Conversion"
tags={
	"Events,Historical,Fixes,Gameplay"
}
picture="thumbnail.png"
supported_version="1.36.*.*"
path="C:/Users/13146/Documents/Paradox Interactive/Europa Universalis IV/mod/Dynamic_Culture_Conversion"
remote_file_id="2760914801"